{
  "/api": {
    "target": "https://api-p.mtginventory.net",
    "secure": false,
    "logLevel": "debug",
    "pathRewrite": {
      "^/api": ""
    },
    "changeOrigin": true
  },
  "/assets/video": {
    "target": "https://app.mtginventory.net",
    "secure": false,
    "logLevel": "debug",
    "changeOrigin": true
  }
}
